<?xml version="1.0" encoding="UTF-8" standalone="no"?>
<!-- Generator: Adobe Illustrator 18.1.1, SVG Export Plug-In . SVG Version: 6.00 Build 0)  -->

<svg
   xmlns:i="&amp;#38;ns_ai;"
   xmlns:dc="http://purl.org/dc/elements/1.1/"
   xmlns:cc="http://creativecommons.org/ns#"
   xmlns:rdf="http://www.w3.org/1999/02/22-rdf-syntax-ns#"
   xmlns:svg="http://www.w3.org/2000/svg"
   xmlns="http://www.w3.org/2000/svg"
   xmlns:sodipodi="http://sodipodi.sourceforge.net/DTD/sodipodi-0.dtd"
   xmlns:inkscape="http://www.inkscape.org/namespaces/inkscape"
   version="1.1"
   id="Layer_1"
   x="0px"
   y="0px"
   viewBox="0 0 400 400"
   enable-background="new 0 0 400 400"
   xml:space="preserve"
   sodipodi:docname="logo_prof_web.svg"
   inkscape:version="0.92.5 (2060ec1f9f, 2020-04-08)"><metadata
   id="metadata53"><rdf:RDF><cc:Work
       rdf:about=""><dc:format>image/svg+xml</dc:format><dc:type
         rdf:resource="http://purl.org/dc/dcmitype/StillImage" /></cc:Work></rdf:RDF></metadata><defs
   id="defs51" /><sodipodi:namedview
   pagecolor="#ffffff"
   bordercolor="#666666"
   borderopacity="1"
   objecttolerance="10"
   gridtolerance="10"
   guidetolerance="10"
   inkscape:pageopacity="0"
   inkscape:pageshadow="2"
   inkscape:window-width="2560"
   inkscape:window-height="1385"
   id="namedview49"
   showgrid="false"
   inkscape:zoom="2.36"
   inkscape:cx="374.25878"
   inkscape:cy="143.05515"
   inkscape:window-x="0"
   inkscape:window-y="27"
   inkscape:window-maximized="1"
   inkscape:current-layer="Layer_1" />
<switch
   id="switch46">
	<foreignObject
   requiredExtensions="http://ns.adobe.com/AdobeIllustrator/10.0/"
   x="0"
   y="0"
   width="1"
   height="1">
		
	</foreignObject>
	<g
   i:extraneous="self"
   id="g44">
		<g
   id="g12">
			<g
   id="g6">
				<path
   d="M137.1,138.2c0,0-7.4-34.2-6-34.2H304c1.4,0,7.4-0.3,8.4,0.7c1,1,1.2,11,1.2,12.3l-0.2,103.4c0,0,0.3,4.9-0.5,5.8      c-1.2,1.3-5.6,0.7-5.6,0.7H180.9c0.3,0,1.5,3.5,2,5c0.6,1.9,2.5,7,2.6,7H304c7,0,13.3,1.9,17.6,0c2.1-0.9,7.4-1.9,7.4-8.9V118.2      c0-7-2.3-13.4-7.2-18.4c-5-5-10.7-7.9-17.7-7.9H131.1c-7,0-13,2.9-18,7.9c-3.9,3.9-2.5,13.9-3.3,19.1      C122.1,118.3,137.1,137.7,137.1,138.2z"
   id="path2" />
				<path
   d="M344.7,254H188.4c-0.1,0,2.2,15.7,1.1,23.6c-0.9,6.2,155.2,0.5,155.2,0.5c7,0,20.1,6.3,25.9,6.9      c5.6,0.6,12.4,0.3,12.4-3.9v-27H344.7z"
   id="path4" />
			</g>
			<g
   id="g10">
				<path
   d="M17.4,278.1c0-4.1,0.1-8.1,0.4-12c0.3-3.9,0.8-8.1,1.6-12.6s1.8-8.7,3.1-12.6c1.2-3.9,2.9-7.6,5-11.3      c2.1-3.7,4.5-6.8,7.2-9.4c2.7-2.6,6-4.7,9.9-6.2c3.9-1.5,8.2-2.3,12.9-2.3c0.7,0,2.3,0.8,4.9,2.5c2.5,1.7,5.4,3.5,8.6,5.6      c3.2,2.1,7.4,3.9,12.5,5.6c5.1,1.7,10.3,2.5,15.4,2.5c5.2,0,10.3-0.8,15.5-2.5c5.1-1.7,9.3-3.5,12.5-5.6c3.2-2,6.1-3.9,8.6-5.6      c2.5-1.7,4.2-2.5,4.9-2.5c4.7,0,9,0.8,12.9,2.3c3.9,1.5,7.2,3.6,9.9,6.2c2.7,2.6,5.1,5.7,7.2,9.4c2.1,3.7,3.7,7.4,5,11.3      c1.2,3.9,2.3,8,3.1,12.6c0.8,4.5,1.4,8.7,1.6,12.6c0.3,3.9,0.4,7.9,0.4,12c0,9.3-2.8,16.6-8.5,21.9c-5.6,5.4-13.1,8-22.5,8H48.4      c-9.3,0-16.8-2.7-22.5-8C20.3,294.7,17.4,287.4,17.4,278.1z M67.5,206.2c-8.7-8.7-13-19.2-13-31.4c0-12.3,4.3-22.8,13-31.4      c8.7-8.7,19.2-13,31.4-13c12.3,0,22.8,4.3,31.4,13c8.7,8.7,13,19.2,13,31.4c0,12.3-4.4,22.7-13,31.4c-8.7,8.7-19.2,13-31.4,13      C86.7,219.2,76.2,214.9,67.5,206.2z"
   id="path8" />
			</g>
		</g>
		<g
   id="g14">
		</g>
		<g
   id="g16">
		</g>
		<g
   id="g18">
		</g>
		<g
   id="g20">
		</g>
		<g
   id="g22">
		</g>
		<g
   id="g24">
		</g>
		<g
   id="g26">
		</g>
		<g
   id="g28">
		</g>
		<g
   id="g30">
		</g>
		<g
   id="g32">
		</g>
		<g
   id="g34">
		</g>
		<g
   id="g36">
		</g>
		<g
   id="g38">
		</g>
		<g
   id="g40">
		</g>
		<g
   id="g42">
		</g>
	</g>
</switch>


<text
   xml:space="preserve"
   style="font-style:normal;font-weight:normal;font-size:55.52809143px;line-height:1.25;font-family:sans-serif;letter-spacing:0px;word-spacing:0px;fill:#000000;fill-opacity:1;stroke:none;stroke-width:1.38820231"
   x="167.33994"
   y="157.34613"
   id="text53"
   transform="scale(1.0522473,0.95034694)"><tspan
     sodipodi:role="line"
     id="tspan51"
     x="167.33994"
     y="157.34613"
     style="stroke-width:1.38820231">Web</tspan><tspan
     sodipodi:role="line"
     x="167.33994"
     y="226.75624"
     id="tspan55"
     style="stroke-width:1.38820231">Prof</tspan></text>
</svg>